classify
…
The function can be used to load a participants data.

d <- munge(here::here("data-raw", "roi_class_results_LDA.mat"))
d

## # A tibble: 24,960 x 5
##    participant region trial class    value
##    <fct>       <fct>  <fct> <fct>    <lgl>
##  1 1           V1v    1     feature1 TRUE 
##  2 1           V1v    1     feature2 TRUE 
##  3 1           V1v    1     object   TRUE 
##  4 1           V1v    2     feature1 TRUE 
##  5 1           V1v    2     feature2 FALSE
##  6 1           V1v    2     object   FALSE
##  7 1           V1v    3     feature1 FALSE
##  8 1           V1v    3     feature2 TRUE 
##  9 1           V1v    3     object   FALSE
## 10 1           V1v    4     feature1 TRUE 
## #  with 24,950 more rows
…
The function can be called like so.

predictions1 <- get_predictions(fit, d, class, region)

The variable predictions1 contains the 95% highest density interval of the models predictions, broken down by class and region. The bounds are stored in columns ymin and ymax.

predictions1

## # A tibble: 78 x 4
##    class    region  ymin  ymax
##    <fct>    <fct>  <dbl> <dbl>
##  1 feature1 V1v    0.505 0.574
##  2 feature1 V1d    0.470 0.539
##  3 feature1 V2v    0.358 0.425
##  4 feature1 V2d    0.466 0.532
##  5 feature1 V3v    0.390 0.458
##  6 feature1 V3d    0.496 0.566
##  7 feature1 hV4    0.415 0.489
##  8 feature1 VO1    0.324 0.390
##  9 feature1 VO2    0.292 0.357
## 10 feature1 PHC12  0.214 0.275
## #  with 68 more rows
…
The output shows the loss in the cross-validation score, relative to the best model (so, the best model has a loss of 0). Given that this is a Bayesian cross-validation, there is also a measure of the uncertainty in those predictive losses, the standard error of the difference. There are no hard rules about how many standard errors signify something important, but more than 3-4 are usually worth patying attention to.

Including Participants

Up to this point, weve only analyzed one participant. But there are three available. Presumably, all of these parameters vary across participants. Unfortunately, it is very hard to estimate this variability with only three participants. But well give it a shot, in part to see what can go wrong with a model.

Heres loading the data.

d_all <- munge(c(
  here::here("data-raw", "roi_class_results_LDA.mat"),
  here::here("data-raw", "roi_class_results_LDA_2.mat"),
  here::here("data-raw", "roi_class_results_LDA_3.mat")))
d_all

## # A tibble: 74,880 x 5
##    participant region trial class    value
##    <fct>       <fct>  <fct> <fct>    <lgl>
##  1 1           V1v    1     feature1 TRUE 
##  2 1           V1v    1     feature2 TRUE 
##  3 1           V1v    1     object   TRUE 
##  4 1           V1v    2     feature1 TRUE 
##  5 1           V1v    2     feature2 FALSE
##  6 1           V1v    2     object   FALSE
##  7 1           V1v    3     feature1 FALSE
##  8 1           V1v    3     feature2 TRUE 
##  9 1           V1v    3     object   FALSE
## 10 1           V1v    4     feature1 TRUE 
## #  with 74,870 more rows
…
